{
    "Version": "2012-10-17",
    "Statement": [
        {
            "Sid": "PowerUserForNonTerraformManaged",
            "Effect": "Allow",
            "NotAction": [
                "iam:*",
                "organizations:*",
                "account:*"
            ],
            "Resource": "*",
            "Condition": {
                "StringNotEquals": {
                    "aws:ResourceTag/Terraform": "true"
                }
            }
        },
        {
            "Sid": "ReadOnlyForTerraformManaged",
            "Effect": "Allow",
            "Action": "arn:aws:iam::aws:policy/ReadOnlyAccess",
            "Resource": "*",
            "Condition": {
                "StringEquals": {
                    "aws:ResourceTag/Terraform": "true"
                }
            }
        }
    ]
}
